﻿game_id;platform_id;release_date
1;1;February 27, 1996
1;2;February 27, 1996
1;14;February 27, 2016
2;1;February 27, 1996
2;2;February 27, 1996
2;14;February 27, 2016
3;1;October 15, 1996
3;2;October 15, 1996
3;14;February 27, 2016
4;1;September 28, 1998
4;14;February 27, 2016
5;1;September 28, 1998
5;14;February 27, 2016
6;3;September 12, 1998
6;14;February 27, 2016
7;3;November 21, 1999
7;14;September 22, 2017
8;3;November 21, 1999
8;14;September 22, 2017
9;3;December 14, 2000
9;14;January 26, 2018
10;4;November 21, 2002
11;4;November 21, 2002
12;4;January 29, 2004
13;4;January 29, 2004
14;4;September 16, 2004
15;5;September 28, 2006
16;5;September 28, 2006
17;5;September 13, 2008
18;5;September 12, 2009
19;5;September 12, 2009
20;5;September 18, 2010
21;5;September 18, 2010
22;5;June 23, 2012
23;5;June 23, 2012
24;6;October 12, 2013
25;6;October 12, 2013
26;6;November 21, 2014
27;6;November 21, 2014
28;6;November 18, 2016
29;6;November 18, 2016
30;6;November 17, 2017
31;6;November 17, 2017
32;7;November 16, 2018
33;7;November 16, 2018
34;7;November 15, 2019
35;7;November 15, 2019
36;7;June 17, 2020
37;7;October 23, 2020
38;7;November 19, 2021
39;7;November 19, 2021
40;7;January 28, 2022
41;7;November 18, 2022
42;7;November 18, 2022
43;7;September 13, 2023
44;7;December 14, 2023
45;8;August 1, 1998
46;8;April 30, 1999
46;7;April 12, 2023
47;8;December 14, 2000
48;8;September 25, 2000
48;14;May 5, 2008
49;8;March 21, 1999
49;14;December 4, 2007
50;8;December 12, 1998
51;9;July 18, 2003
52;9;Noveber 21, 2003
53;9;May 30, 2003
54;9;August 4, 2005
55;10;December 14, 2006
56;10;December 5, 2009
57;10;November 12, 2011
58;10;March 25, 2008
59;10;June 16, 2009
60;11;April 24, 2013
61;13;July 16, 2015
61;11;March 18, 2016
62;7;September 22, 2017
63;7;March 6, 2020
64;7;April 30, 2021
65;7;October 6, 2023
66;3;September 21, 2000
66;14;November 6, 2014
67;3;April 14, 1999
69;4;August 1, 2003
69;14;December 10, 2014
70;5;March 23, 2006
70;14;April 13, 2016
71;5;March 20, 2008
71;14;July 27, 2016
72;5;March 6, 2010
72;14;August 3, 2016
73;5;October 20, 2005
74;5;December 2, 2004
75;4;November 17, 2005
75;14;March 23, 2016
76;5;November 17, 2005
76;14;March 23, 2016
77;5;September 13, 2007
78;5;September 13, 2007
79;5;April 18, 2009
79;14;July 20, 2016
80;5;March 17, 2012
81;5;April 21, 2011
82;6;August 11, 2011
82;15;January 30, 2013
83;6;June 6, 2011
84;6;July 14, 2012
85;6;June 23, 2012
86;6;November 23, 2012
87;6;March 12, 2014
88;6;June 19, 2014
89;6;February 18, 2015
89;12;August 24, 2015
90;14;April 8, 2015
90;6;November 19, 2015
91;6;September 17, 2015
92;6;December 2, 2015
93;14;February 3, 2016
93;6;March 23, 2018
94;13;July 14, 2007
95;13;July 14, 2012
96;6;August 10, 2013
97;13;July 7, 2016
98;13;December 01, 1999
99;12;March 29, 2016
100;12;February 24, 2016
101;12;April 12, 2016
102;12;June 27, 2018
102;7;May 30, 2018
103;12;May 22, 2019
104;12;August 29, 2019
105;12;February 12, 2020
105;7;February 12, 2020
106;16;December 14, 2001
107;16;December 14, 2001
108;16;December 14, 2001
109;16;December 14, 2001
110;17;March 27, 1998
111;17;November 21, 1999
112;17;September 12, 2009
113;3;December 18, 1998
113;14;December 24, 2014
114;3;March 28, 2001
115;18;April 1, 1999
116;19;November 9, 1999
117;19;November 9, 1999
118;19;February 01, 2000
119;19;March 01, 2000
120;16;March 21, 2002
121;16;April 26, 2002
122;16;July 19, 2002
123;16;August 9, 2002
124;16;October 18, 2002
125;19;July 11, 2000
126;16;December 14, 2002
127;19;January 1, 2004
130;12;June 5, 2006
131;17;January 1, 1999
132;17;January 1, 1999
133;20;July 23, 2002
134;13;January 1, 2000
135;13;July 1, 2001
136;13;January 1, 2006
137;20;November 17, 2003
138;20;July 13, 2004
139;21;October 1, 2005
140;19;October 28, 2005
141;19;January 1, 2006
142;19;June 20, 2006
143;19;January 1, 2006
144;19;January 1, 2006
145;10;August 4, 2009
146;10;August 4, 2009
147;10;August 4, 2009
148;12;February 27, 2009
149;21;November 21, 2006
150;19;October 12, 2012
152;13;January 1, 2010
153;13;January 17, 2012
154;21;December 4, 2010
155;19;March 24, 2011
155;12;March 24, 2011
156;12;July 15, 2011
157;5;August 5, 2011
158;19;December 28, 2012
159;21;September 8, 2009
160;13;June 23, 2014
161;13;July 8, 2014
164;6;June 5, 2014
165;12;June 30, 2015
166;12;October 21, 2014
167;12;May 23, 2017
168;12;October 15, 2019
169;12;September 21, 2017
170;22;November 8, 2017
171;17;January 26, 2019
172;13;September 17, 2020
173;12;June 17, 2020
174;12;June 24, 2020
175;23;December 23, 2019
176;23;December 23, 2019
177;12;September 22, 2021
177;7;July 21, 2021
178;19;February 22, 2022
178;12;February 22, 2022
179;12;July 16, 2023
180;12;December 6, 2012
181;6;December 25, 2013
182;6;December 25, 2013
183;19;November 1, 2010
183;7;August 26, 2021
184;12;May 7, 2015
185;12;February 8, 2019
186;12;May 1, 2019
187;5;May 10, 2005
188;6;December 17, 2014
189;12;October 28, 2021
190;12;April 22, 2015
191;17;January 1, 2004
192;19;September 18, 2010
193;19;July 7, 2006
194;19;October 1, 2006
195;19;August 11, 2007
196;19;January 1, 2010
197;3;Never released
