﻿platform_id;platform_name;platform_icon_path
1;Nintendo Game Boy;pokemon_data/assets/platform_icons/gameboy.png
2;Nintendo Super Game Boy;pokemon_data/assets/platform_icons/supergameboy.png
3;Nintendo Game Boy Color;pokemon_data/assets/platform_icons/gameboycolor.png
4;Nintendo Game Boy Advance;pokemon_data/assets/platform_icons/gameboyadvance.png
5;Nintendo DS;pokemon_data/assets/platform_icons/nintendods.png
6;Nintendo 3DS;pokemon_data/assets/platform_icons/nintendo3ds.png
7;Nintendo Switch;pokemon_data/assets/platform_icons/nintendoswitch.png
8;Nintendo 64;pokemon_data/assets/platform_icons/nintendo64.png
9;Nintendo GameCube;pokemon_data/assets/platform_icons/nintendogamecube.png
10;Nintendo Wii;pokemon_data/assets/platform_icons/nintendowii.png
11;Nintendo Wii U;pokemon_data/assets/platform_icons/nintendowiiu.png
12;Mobile;pokemon_data/assets/platform_icons/mobile.png
13;Arcade;pokemon_data/assets/platform_icons/arcade.png
14;Virtual Console;pokemon_data/assets/platform_icons/virtualconsole.png
15;Nintendo Switch eShop;pokemon_data/assets/platform_icons/eshop.png
16;Pokémon Mini;pokemon_data/assets/platform_icons/pokemonmini.png
17;Self-Contained Platform;pokemon_data/assets/platform_icons/selfcontainedplatform.png
18;Super Nintendo Entertainment System;pokemon_data/assets/platform_icons/snes.png
19;PC;pokemon_data/assets/platform_icons/pc.png
20;Sega Pico;pokemon_data/assets/platform_icons/segapico.png
21;Sega Advanced Pico Beena;pokemon_data/assets/platform_icons/segaadvancedpicobeena.png
22;Google Home;pokemon_data/assets/platform_icons/googlehome.png
23;Facebook Gaming;pokemon_data/assets/platform_icons/facebookgaming.png
