﻿pokemon_form_change_id;pokemon_form_id;pokemon_form_tree;transition_grid_position;text_top;text_bottom;grid_position_column;grid_position_row
1;3;1;-;-;-;2;1
2;4;1;left;While holding Venusaurite;-;3;1
3;5;1;right;Lasts three turns;-;1;1
4;8;2;-;-;-;1;1 / span 3
5;9;2;left;While holding Charizardite X;-;2;1
6;10;2;left;While holding Charizardite Y;-;2;2
7;11;2;left;Lasts three turns;-;2;3
8;14;3;-;-;-;2;1
9;15;3;left;While holding Blastoisinite;-;3;1
10;1297;3;right;Lasts three turns;-;1;1
11;18;4;-;-;-;1;1
12;1296;4;left;Lasts three turns;-;2;1
13;21;5;-;-;-;1;1
14;22;5;left;While holding Beedrillite;-;2;1
15;25;6;-;-;-;1;1
16;26;6;left;While holding Pidgeotite;-;2;1
17;35;7;-;-;-;1;1
18;1299;7;left;Lasts three turns;-;2;1
19;69;8;-;-;-;1;1
20;1300;8;left;Lasts three turns;-;2;1
21;87;9;-;-;-;1;1
22;88;9;left;While holding Alakazite;-;2;1
23;91;10;-;-;-;1;1
24;1301;10;left;Lasts three turns;-;2;1
25;109;11;-;-;-;1;1
26;111;11;left;While holding Slowbronite;-;2;1
27;128;12;-;-;-;2;1
28;129;12;left;While holding Gengarite;-;3;1
29;1302;12;right;Lasts three turns;-;1;1
30;134;13;-;-;-;1;1
31;1303;13;left;Lasts three turns;-;2;1
32;155;14;-;-;-;1;1
33;156;14;left;While holding Kangaskhanite;-;2;1
34;169;15;-;-;-;1;1
35;170;15;left;While holding Pinsirite;-;2;1
36;171;16;-;-;-;1;1
37;173;16;-;Found in Pokémon Scarlet;-;2;1
38;174;16;-;Found in Pokémon Violet;-;3;1
39;172;16;-;Found in Both;Breeding regular Tauros without an Everstone will always produce a Combat Breed Tauros;4;1
40;176;17;-;-;-;1;1
41;177;17;left;While holding Gyaradosite;-;2;1
42;178;18;-;-;-;1;1
43;1304;18;left;Lasts three turns;-;2;1
44;180;19;-;-;-;1;1
45;1305;19;left;Lasts three turns;-;2;1
46;189;20;-;-;-;1;1
47;190;20;left;While holding Aerodactylite;-;2;1
48;191;21;-;-;-;1;1
49;1306;21;left;Lasts three turns;-;2;1
50;201;22;-;-;-;2;1
51;202;22;right;While holding Mewtwonite X;-;1;1
52;203;22;left;While holding Mewtwonite Y;-;3;1
53;235;23;-;-;-;1;1
54;236;23;left;While holding Ampharosite;-;2;1
55;1340;24;-;-;-;1;1
56;1341;24;-;-;-;2;1
57;1342;24;-;-;-;3;1
58;1343;24;-;-;-;4;1
59;1344;24;-;-;-;5;1
60;1345;24;-;-;-;1;2
61;1346;24;-;-;-;2;2
62;1347;24;-;-;-;3;2
63;1348;24;-;-;-;4;2
64;1349;24;-;-;-;5;2
65;1350;24;-;-;-;1;3
66;1351;24;-;-;-;2;3
67;1352;24;-;-;-;3;3
68;1353;24;-;-;-;4;3
69;1354;24;-;-;-;5;3
70;1355;24;-;-;-;1;4
71;1356;24;-;-;-;2;4
72;1357;24;-;-;-;3;4
73;1358;24;-;-;-;4;4
74;1359;24;-;-;-;5;4
75;1360;24;-;-;-;1;5
76;1361;24;-;-;-;2;5
77;1362;24;-;-;-;3;5
78;1363;24;-;-;-;4;5
79;1364;24;-;-;-;5;5
80;1365;24;-;-;-;1;6
81;1366;24;-;-;-;2;6
82;1367;24;-;-;-;3;6
83;265;25;-;-;-;1;1
84;266;25;left;While holding Steelixite;-;2;1
85;271;26;-;-;-;1;1
86;272;26;left;While holding Scizorite;-;2;1
87;274;27;-;-;-;1;1
88;275;27;left;While holding Heracronite;-;2;1
89;292;28;-;-;-;1;1
90;293;28;left;While holding Houndoominite;-;2;1
91;312;29;-;-;-;1;1
92;313;29;left;While holding Tyranitarite;-;2;1
93;319;30;-;-;-;1;1
94;320;30;left;While holding Sceptilite;-;2;1
95;323;31;-;-;-;1;1
96;324;31;left;While holding Blazikenite;-;2;1
97;327;32;-;-;-;1;1
98;328;32;left;While holding Swampertite;-;2;1
99;352;33;-;-;-;1;1
100;353;33;left;While holding Gardevoirite;-;2;1
101;373;34;-;-;-;1;1
102;374;34;left;While holding Sablenite;-;2;1
103;375;35;-;-;-;1;1
104;376;35;left;While holding Mawilite;-;2;1
105;379;36;-;-;-;1;1
106;380;36;left;While holding Aggronite;-;2;1
107;382;37;-;-;-;1;1
108;383;37;left;While holding Medichamite;-;2;1
109;385;38;-;-;-;1;1
110;386;38;left;While holding Manectite;-;2;1
111;395;39;-;-;-;1;1
112;396;39;left;While holding Sharpedonite;-;2;1
113;400;40;-;-;-;1;1
114;401;40;left;While holding Cameruptite;-;2;1
115;430;41;-;-;-;1;1
116;431;41;left;-;-;2;1
117;432;41;left;-;-;3;1
118;433;41;left;-;-;4;1
119;436;42;-;-;-;1;1
120;437;42;left;While holding Banettite;-;2;1
121;442;43;-;-;-;1;1
122;443;43;left;While holding Absolite;-;2;1
123;446;44;-;-;-;1;1
124;447;44;left;While holding Glalitite;-;2;1
125;458;45;-;-;-;1;1
126;459;45;left;While holding Salamencite;-;2;1
127;462;46;-;-;-;1;1
128;463;46;left;While holding Metagrossite;-;2;1
129;467;47;-;-;-;1;1
130;468;47;left;While holding Latiasite;-;2;1
131;469;48;-;-;-;1;1
132;470;48;left;While holding Latiosite;-;2;1
133;471;49;-;-;-;1;1
134;472;49;left;While holding Blue Orb;-;2;1
135;473;50;-;-;-;1;1
136;474;50;left;While holding Red Orb;-;2;1
137;475;51;-;-;-;1;1
138;476;51;left;While not holding a Z-Crystal;-;2;1
139;478;52;-;-;-;1;1
140;479;52;left;-;-;2;1
141;480;52;left;-;-;3;1
142;481;52;left;-;-;4;1
143;507;53;-;After combat outside or in tall grass;-;1;1
144;508;53;left;After combat in a cave or on a beach;-;2;1
145;509;53;left;After combat in a building;-;3;1
146;510;54;-;Evolved from Burmy - Plant Cloak;-;1;1
147;511;54;-;Evolved from Burmy - Sandy Cloak;-;2;1
148;512;54;-;Evolved from Burmy - Trash Cloak;-;3;1
149;520;55;-;-;-;1;1
150;521;55;left;-;-;2;1
151;522;56;-;-;-;1;1
152;523;56;-;-;-;2;1
153;524;57;-;-;-;1;1
154;525;57;-;-;-;2;1
155;530;58;-;-;-;1;1
156;531;58;left;While holding Lopunnite;-;2;1
157;548;59;-;-;-;1;1
158;549;59;left;While holding Garchompite;-;2;1
159;552;60;-;-;-;1;1
160;553;60;left;While holding Lucarionite;-;2;1
161;565;61;-;-;-;1;1
162;566;61;left;While holding Abomasite;-;2;1
163;581;62;-;-;-;1;1
164;582;62;left;While holding Galladite;-;2;1
165;586;63;-;Rotom changes form depending on the appliance it possesses;-;1;1
166;587;63;left;Microwave oven;-;2;1
167;588;63;left;Washing machine;-;3;1
168;589;63;left;Refrigerator;-;4;1
169;590;63;left;Electric fan;-;5;1
170;591;63;left;Lawn mower;-;6;1
171;595;64;-;-;-;1;1
172;596;64;left;While holding Adamant Crystal;-;2;1
173;597;65;-;-;-;1;1
174;598;65;left;While holding Lustrous Globe;-;2;1
175;601;66;-;-;-;1;1
176;602;66;left;While holding Griseous Core;-;2;1
177;607;67;-;At night or after being frozen;-;1;1
178;608;67;left;After being exposed to Gracidea;-;2;1
179;1368;68;bottom;-;-;1;1
180;1369;68;bottom;-;-;2;1
181;1370;68;bottom;-;-;3;1
182;1371;68;bottom;-;-;4;1
183;1372;68;bottom;-;-;1;2
184;1373;68;bottom;-;-;2;2
185;1374;68;bottom;-;-;3;2
186;1375;68;bottom;-;-;4;2
187;1376;68;bottom;-;-;1;3
188;1377;68;bottom;-;-;2;3
189;1378;68;bottom;-;-;3;3
190;1379;68;bottom;-;-;4;3
191;1380;68;bottom;-;-;1;4
192;1381;68;bottom;-;-;2;4
193;1382;68;bottom;-;-;3;4
194;1383;68;bottom;-;-;4;4
195;1384;68;bottom;-;-;1;5
196;1385;68;bottom;-;-;2;5
197;648;69;-;-;-;1;1
198;649;69;left;While holding Audinite;-;2;1
199;669;70;-;-;-;1;1
200;670;70;-;-;-;2;1
201;671;70;-;-;-;3;1
202;677;71;-;>50% HP;-;1;1
203;678;71;left;<50% HP;-;2;1
204;679;71;-;>50% HP;-;3;1
205;680;71;left;<50% HP;-;4;1
206;695;72;-;-;-;1;1
207;1308;72;left;Lasts three turns;-;2;1
208;713;73;-;South Province / January, May, September;-;1;1
209;714;73;left;East Province / February, June, October;-;2;1
210;715;73;left;West Province / March, July, November;-;3;1
211;716;73;left;North Province / April, August, December;-;4;1
212;717;74;-;South Province / January, May, September;-;1;1
213;718;74;left;East Province / February, June, October;-;2;1
214;719;74;left;West Province / March, July, November;-;3;1
215;720;74;left;North Province / April, August, December;-;4;1
216;777;75;-;-;-;1;1
217;778;75;left;-;-;2;1
218;779;76;-;-;-;1;1
219;780;76;left;-;-;2;1
220;781;77;-;Outside of battle;-;1;1
221;1311;77;left;-;-;2;1
222;782;78;-;Outside of battle;-;1;1
223;1312;78;left;-;-;2;1
224;783;79;-;-;-;1;1
225;784;79;left;-;-;2;1
226;1313;80;right;In Battle;-;1;1
227;786;80;right;with Reshiram;-;2;1
228;785;80;-;-;-;3;1
229;787;80;left;with Zekrom;-;4;1
230;1314;80;left;In Battle;-;5;1
231;788;81;-;While not knowing Secret Sword;-;1;1
232;789;81;left;While knowing Secret Sword;-;2;1
233;790;82;-;Outside of battle or after using Relic Song;-;1;1
234;791;82;left;After using Relic Song;-;2;1
235;792;83;bottom;-;-;1;1
236;793;83;bottom;-;-;2;1
237;794;83;bottom;-;-;3;1
238;795;83;bottom;-;-;4;1
239;796;83;bottom;-;-;5;1
240;805;84;-;-;-;1;1
241;806;84;-;Default form;-;2;1
242;807;84;left;After knocking out one opponent;-;3;1
243;815;85;-;-;-;1;1
244;816;85;-;-;-;2;1
245;817;85;-;-;-;3;1
246;818;85;-;-;-;4;1
247;819;85;-;-;-;5;1
248;820;85;-;-;-;1;2
249;821;85;-;-;-;2;2
250;822;85;-;-;-;3;2
251;823;85;-;-;-;4;2
252;824;85;-;-;-;5;2
253;825;85;-;-;-;1;3
254;827;85;-;-;-;2;3
255;828;85;-;-;-;3;3
256;829;85;-;-;-;4;3
257;830;85;-;-;-;5;3
258;831;85;-;-;-;1;4
259;832;85;-;-;-;2;4
260;833;85;-;-;-;3;4
261;834;85;-;-;-;4;4
262;1315;85;-;-;-;5;4
263;837;86;-;-;-;1;1
264;838;86;-;-;-;2;1
265;839;86;-;-;-;3;1
266;840;86;-;-;-;4;1
267;841;86;-;-;-;5;1
268;842;87;-;-;-;1;1
269;844;87;-;-;-;2;1
270;845;87;-;-;-;3;1
271;846;87;-;-;-;1;2
272;847;87;-;-;-;2;2
274;848;87;-;Unobtainable;-;3;2
275;849;88;-;Evolved from Flabébé - Red Flower;-;1;1
276;850;88;-;Evolved from Flabébé - Yellow Flower;-;2;1
277;851;88;-;Evolved from Flabébé - Orange Flower;-;3;1
278;852;88;-;Evolved from Flabébé - Blue Flower;-;4;1
279;1386;88;-;Evolved from Flabébé - White Flower;-;5;1
280;857;89;-;-;-;1;1
281;858;89;left;-;-;2;1
282;859;89;left;-;-;3;1
283;860;89;left;-;-;4;1
284;861;89;left;-;-;5;1
285;862;89;-;-;-;1;2
286;863;89;left;-;-;2;2
287;864;89;left;-;-;3;2
288;865;89;left;-;-;4;2
289;866;89;left;-;-;5;2
290;872;90;-;After using King's Shield;-;1;1
291;873;90;left;After using a damaging move;-;2;1
292;904;91;-;-;-;1;1
293;905;91;-;-;-;2;1
294;906;91;-;-;-;3;1
295;907;91;-;-;-;4;1
296;908;92;-;Evolved from Pumpkaboo - Small Size;-;1;1
297;909;92;-;Evolved from Pumpkaboo - Average Size;-;2;1
298;910;92;-;Evolved from Pumpkaboo - Large Size;-;3;1
299;911;92;-;Evolved from Pumpkaboo - Super Size;-;4;1
300;917;93;-;Outside of battle;-;1;1
301;918;93;left;In Battles;-;2;1
302;921;94;right;-;-;1;1
303;1316;94;-;Power Construct + HP<50%;-;2;1
304;922;94;left;-;-;3;1
305;923;95;-;-;-;1;1
306;924;95;left;While holding Diancite;-;2;1
307;925;96;-;Three days after using Prison Bottle;-;1;1
308;926;96;left;-;-;2;1
309;948;97;-;-;-;1;1
310;949;97;left;-;-;2;1
311;950;97;left;-;-;3;1
312;951;97;left;-;-;4;1
313;954;98;-;-;-;1;1
314;955;98;-;-;-;2;1
315;959;99;-;Outside of battle;-;1;1
316;960;99;left;Schooling + Lv.>20 + HP>25%;-;2;1
317;1387;100;top;-;-;1;1
318;1388;100;top;-;-;2;1
319;1389;100;top;-;-;3;1
320;1390;100;top;-;-;4;1
321;1391;100;top;-;-;1;2
322;1392;100;top;-;-;2;2
323;1393;100;top;-;-;3;2
324;1394;100;top;-;-;4;2
325;1395;100;top;-;-;1;3
326;1396;100;top;-;-;2;3
327;1397;100;top;-;-;3;3
328;1398;100;top;-;-;4;3
329;1399;100;top;-;-;1;4
330;1400;100;top;-;-;2;4
331;1401;100;top;-;-;3;4
332;1402;100;top;-;-;4;4
333;1403;100;top;-;-;1;5
334;1404;100;top;-;-;2;5
335;988;101;-;-;-;1;1
336;989;101;left;-;-;2;1
338;991;101;-;-;-;1;2
339;993;101;-;-;-;2;2
340;995;101;-;-;-;3;2
341;997;101;-;-;-;1;3
342;999;101;-;-;-;2;3
343;1001;101;-;-;-;3;3
344;1005;102;-;Outside of battle;-;1;1
345;1006;102;left;After being hit in battle;-;2;1
346;1028;103;-;-;-;1;1 / span 2
347;1029;103;left;with Solgaleo;-;2;1
348;1030;103;left;with Lunala;-;2;2
349;1031;103;left;After using Ultra Burst;-;3;1 / span 2
350;1032;104;-;-;-;1;1
351;1295;104;-;After completing the National Pokédex in Pokémon Home up to Eternatus;-;2;1
352;1040;105;-;-;-;1;1
353;1319;105;left;Lasts three turns;-;2;1
354;1043;106;-;-;-;1;1
355;1298;106;left;Lasts three turns;-;2;1
356;1046;107;-;-;-;1;1
357;1320;107;left;Lasts three turns;-;2;1
358;1049;108;-;-;-;1;1
359;1321;108;left;Lasts three turns;-;2;1
360;1054;109;-;-;-;1;1
361;1322;109;left;Lasts three turns;-;2;1
362;1057;110;-;-;-;1;1
363;1323;110;left;Lasts three turns;-;2;1
364;1065;111;-;-;-;1;1
365;1324;111;left;Lasts three turns;-;2;1
366;1070;112;-;-;-;1;1
367;1325;112;left;Lasts three turns;-;2;1
368;1072;113;-;-;-;1;1
369;1326;113;left;Lasts three turns;-;2;1
370;1073;114;-;-;-;1;1
371;1327;114;left;Lasts three turns;-;2;1
372;1075;115;-;-;-;1;1
373;1328;115;left;Lasts three turns;-;2;1
374;1077;116;right;Use Surf or Dive <50% HP;-;1;1
375;1076;116;-;Outside of battle or after being hit by a damaging move;-;2;1
376;1078;116;left;Use Surf or Dive >50% HP;-;3;1
377;1082;117;-;-;-;1;1
378;1083;117;-;-;-;1;2
379;1329;117;left;Lasts three turns;-;2;1 / span 2
380;1085;118;-;-;-;1;1
381;1330;118;left;Lasts three turns;-;2;1
382;1092;119;-;-;-;1;1
383;1331;119;left;Lasts three turns;-;2;1
384;1095;120;-;-;-;1;1
385;1332;120;left;Lasts three turns;-;2;1
386;1103;121;-;-;-;1;1
387;1333;121;left;Lasts three turns;-;2;1
388;1109;122;-;Activate Ice Face;-;1;1
389;1110;122;left;After being hit with a physical move;-;2;1
390;1113;123;-;Outside of battle;-;1;1
391;1114;123;left;Switching with Fully Belly Mode every turn;-;2;1
392;1116;124;-;-;-;1;1
393;1334;124;left;Lasts three turns;-;2;1
394;1121;125;-;-;-;1;1
395;1335;125;left;Lasts three turns;-;2;1
396;1125;126;-;-;-;1;1
397;1126;126;left;While holding Rusted Sword;-;2;1
398;1127;127;-;-;-;1;1
399;1128;127;left;While holding Rusted Shield;-;2;1
400;1129;128;-;-;-;1;1
401;1130;128;left;Unobtainable;-;2;1
402;1132;129;-;-;-;1;1
403;1336;129;left;Lasts three turns;-;2;1
404;1133;129;-;-;-;1;2
405;1337;129;left;Lasts three turns;-;2;2
406;1134;130;-;-;-;1;1
407;1135;130;-;-;-;2;1
408;1141;131;right;With Glastrier;-;1;1
409;1140;131;-;-;-;2;1
410;1142;131;left;With Spectrier;-;3;1
411;1145;132;-;-;-;1;1
412;1339;132;-;-;-;2;1
413;1150;133;-;-;-;1;1
414;1151;133;left;-;-;2;1
415;1179;134;-;-;-;1;1
416;1180;134;-;-;-;2;1
417;1181;134;-;-;-;3;1
418;1182;134;-;-;-;4;1
419;1215;135;-;Outside of a battle;-;1;1
420;1216;135;left;After switching out without fainting;-;2;1
421;1230;136;-;Attack Boost;-;1;1
422;1231;136;-;Defense Boost;-;2;1
423;1232;136;-;Speed Boost;-;3;1
424;1254;137;-;-;-;1;1
425;1255;137;-;Can not be caught in the wild;-;2;1
426;1263;138;-;-;-;1;1
427;1405;138;left;-;-;2;1
428;1406;138;left;-;-;3;1
429;1407;138;left;-;-;4;1
430;1408;138;left;-;-;5;1
431;1268;139;-;-;-;1;1
432;1409;139;left;-;-;2;1
433;1410;139;left;-;-;3;1
434;1411;139;left;-;-;4;1
435;1412;139;left;-;-;5;1
436;1281;140;-;While holding no item;-;1;1
437;1282;140;left;While holding no Wellspring Mask;-;2;1
438;1283;140;left;While holding no Hearthflame Mask;-;3;1
439;1284;140;left;While holding no Cornerstone Mask;-;4;1
440;1291;141;-;;-;1;1
441;1292;141;left;After activating Tera Shift;-;2;1
442;1293;141;left;After Terastallization;-;3;1
443;412;142;-;-;-;1;1
444;413;142;left;While holding Altarianite;-;2;1
